0x3f400c80 67
0x3f400ce8 18
0x3f400d04 0b
0x3f400d10 1a
0x3f400d2c 1e
0x3f400d74 0b
0x3f400d88 0b
0x3f400d90 19
0x3f400dac 08
0x3f4018e4 19
0x3f401900 2a
0x3f40192c 3e
0x3f40196c 0f
0x3f40197c 53
0x3f4019d0 10
0x3f4019e4 08
0x3f4019ec 08
0x3f4019f4 4b
0x3f401a40 0f
0x3f401a50 19
0x3f401a6c 0b
0x3f401a78 22
0x3f401a9c 34
0x3f401ad4 23
0x3f401af8 31
0x3f401b2c a2
0x3f401bd0 13
0x3f401be4 51
0x3f401c60 7a
0x3f401cd8 76
0x3f401d50 86
0x3f401e38 13
0x3f401e4c 23
0x3f401e70 11
0x3f401ea0 6
0x3f401ea8 13
0x3f401ef4 34
0x3f401f2c 0e
0x3f401f3c 19
0x3f401f68 80
0x3f402078 42
0x3f402e38 15
0x3f402e50 7
0x3f402e58 2b
0x3f402e84 7
0x3f402ee0 41
0x3f402f5c 41
0x3f403244 80
0x3f4032c8 80
0x3f40334c 0f
0x3f403384 18
0x3f40339c 21
0x3f4033c0 34
0x3f40347c 0c
0x3f40348c 06
0x3f403494 0f
0x3f4034a4 05
0x3f4034ac 2a
0x3f403b98 23
0x3f403bbc 20
0x3f403bf8 1c
0x3f403c18 0c
0x3f403c24 0c
0x3f403c30 24
